# (c) Melchior FRANZ  < mfranz # flightgear : org >




if (!contains(globals, "cprint"))
	var cprint = func nil;

var devel = !!getprop("devel");
var quickstart = !!getprop("quickstart");

var sin = func(a) math.sin(a * D2R);
var cos = func(a) math.cos(a * D2R);
var pow = func(v, w) math.exp(math.ln(v) * w);
var npow = func(v, w) v ? math.exp(math.ln(abs(v)) * w) * (v < 0 ? -1 : 1) : 0;
var clamp = func(v, min = 0, max = 1) v < min ? min : v > max ? max : v;
var normatan = func(x, slope = 1) math.atan2(x, slope) * 2 / math.pi;
var bell = func(x, spread = 2) pow(math.e, -(x * x) / spread);
var max = func(a, b) a > b ? a : b;
var min = func(a, b) a < b ? a : b;


# doors =============================================================
var Doors = {
	new: func {
		var m = { parents: [Doors] };
		m.active = 0;
		m.list = [];
		foreach (var d; props.globals.getNode("sim/model/bo105/doors").getChildren("door"))
			append(m.list, aircraft.door.new(d, 2.5));
		return m;
	},
	next: func {
		me.select(me.active + 1);
	},
	previous: func {
		me.select(me.active - 1);
	},
	select: func(which) {
		me.active = which;
		if (me.active < 0)
			me.active = size(me.list) - 1;
		elsif (me.active >= size(me.list))
			me.active = 0;
		gui.popupTip("Selecting " ~ me.list[me.active].node.getNode("name").getValue());
	},
	toggle: func {
		me.list[me.active].toggle();
	},
	reset: func {
		foreach (var d; me.list)
			d.setpos(0);
	},
};



# fuel ==============================================================

# density = 6.682 lb/gal [Flight Manual Section 9.2]
# avtur/JET A-1/JP-8
var FUEL_DENSITY = getprop("/consumables/fuel/tank/density-ppg"); # pound per gallon
var GAL2LB = FUEL_DENSITY;
var LB2GAL = 1 / GAL2LB;
var KG2GAL = KG2LB * LB2GAL;
var GAL2KG = 1 / KG2GAL;



var Tank = {
	new: func(n) {
		var m = { parents: [Tank] };
		m.capacity = n.getNode("capacity-gal_us").getValue();
		m.level_galN = n.initNode("level-gal_us", m.capacity);
		m.level_lbN = n.getNode("level-lbs");
		m.consume(0);
		return m;
	},
	level: func {
		return me.level_galN.getValue();
	},
	consume: func(amount) { # US gal (neg. values for feeding)
		var level = me.level();
		if (amount > level)
			amount = level;
		level -= amount;
		if (level > me.capacity)
			level = me.capacity;
		me.level_galN.setDoubleValue(level);
		me.level_lbN.setDoubleValue(level * GAL2LB);
		return amount;
	},
};



var fuel = {
	init: func {
		var fuel = props.globals.getNode("/consumables/fuel");
		me.pump_capacity = 6.6 * L2GAL / 60; # same pumps for transfer and supply; from ec135: 6.6 l/min
		me.total_galN = fuel.getNode("total-fuel-gals", 1);
		me.total_lbN = fuel.getNode("total-fuel-lbs", 1);
		me.total_normN = fuel.getNode("total-fuel-norm", 1);
		me.main = Tank.new(fuel.getNode("tank[0]"));
		me.supply = Tank.new(fuel.getNode("tank[1]"));

		var sw = props.globals.getNode("/controls/switches");
		setlistener(sw.initNode("fuel/transfer-pump[10]", 1, "BOOL"), func(n) me.trans1 = n.getValue(), 1);
		setlistener(sw.initNode("fuel/transfer-pump[1]", 1, "BOOL"), func(n) me.trans2 = n.getValue(), 1);
		setlistener("/sim/freeze/fuel", func(n) me.freeze = n.getBoolValue(), 1);
		me.capacity = me.main.capacity + me.supply.capacity;
		me.warntime = 0;
		me.update(0);
	},
	update: func(dt) {
		# transfer pumps (feed supply from main)
		var free = me.supply.capacity - me.supply.level();
		if (free > 0) {
			var trans_flow = (me.trans1 + me.trans2) * me.pump_capacity;
			me.supply.consume(-me.main.consume(min(trans_flow * dt, free)));
		}

		

		var level = me.main.level() + me.supply.level();
		me.total_galN.setDoubleValue(level);
		me.total_lbN.setDoubleValue(level * GAL2LB);
		me.total_normN.setDoubleValue(level / me.capacity);
	},
	level: func {
		return me.supply.level();
	},
	consume: func(amount) {
		return me.freeze ? 0 : me.supply.consume(amount);
	},
};



# engines/rotor =====================================================
var rotor_rpm = props.globals.getNode("rotors/main/rpm");
var torque = props.globals.getNode("rotors/gear/total-torque", 1);
var collective = props.globals.getNode("controls/engines/engine[0]/throttle");
var turbine = props.globals.getNode("sim/model/bo105/turbine-rpm-pct", 1);
var torque_pct = props.globals.getNode("sim/model/bo105/torque-pct", 1);
var target_rel_rpm = props.globals.getNode("controls/rotor/reltarget", 1);
var max_rel_torque = props.globals.getNode("controls/rotor/maxreltorque", 1);



var Engine = {
	new: func(n) {
		var m = { parents: [Engine] };
		m.in = props.globals.getNode("controls/engines", 1).getChild("engine", n, 1);
		m.out = props.globals.getNode("engines", 1).getChild("engine", n, 1);
		m.airtempN = props.globals.getNode("/environment/temperature-degc");

		# input
		m.ignitionN = m.in.initNode("ignition", 0, "BOOL");
		m.starterN = m.in.initNode("starter", 0, "BOOL");
		m.powerN = m.in.initNode("power", 0);
		m.magnetoN = m.in.initNode("magnetos", 1, "INT");

		# output
		m.runningN = m.out.initNode("running", 0, "BOOL");
		m.n1_pctN = m.out.initNode("n1-pct", 0);
		m.n2_pctN = m.out.initNode("n2-pct", 0);
		m.n1N = m.out.initNode("n1-rpm", 0);
		m.n2N = m.out.initNode("n2-rpm", 0);
		m.totN = m.out.initNode("tot-degc", m.airtempN.getValue());

		m.starterLP = aircraft.lowpass.new(3);
		m.n1LP = aircraft.lowpass.new(4);
		m.n2LP = aircraft.lowpass.new(4);
		setlistener("/sim/signals/reinit", func(n) n.getValue() or m.reset(), 1);
		m.timer = aircraft.timer.new("/sim/time/hobbs/turbines[" ~ n ~ "]", 10);
		m.running = 0;
		m.fuelflow = 0;
		m.n1 = -1;
		m.up = -1;
		return m;
	},
	reset: func {
		me.magnetoN.setIntValue(1);
		me.ignitionN.setBoolValue(0);
		me.starterN.setBoolValue(0);
		me.powerN.setDoubleValue(0);
		me.runningN.setBoolValue(me.running = 0);
		me.starterLP.set(0);
		me.n1LP.set(me.n1 = 0);
		me.n2LP.set(me.n2 = 0);
	},
	update: func(dt, trim = 0) {
		var starter = me.starterLP.filter(me.starterN.getValue() * 0.19);	# starter 15-20% N1max
		me.powerN.setValue(me.power = clamp(me.powerN.getValue()));
		var power = me.power * 0.97 + trim;					# 97% = N2% in flight position

		if (me.running)
			power += (1 - collective.getValue()) * 0.03;			# droop compensator
		if (power > 1.12)
			power = 1.12;							# overspeed restrictor

		me.fuelflow = 0;
		if (!me.running) {
			if (me.n1 > 0.05 and power > 0.05 and me.ignitionN.getValue()) {
				me.runningN.setBoolValue(me.running = 1);
				me.timer.start();
			}

		} elsif (power < 0.05 or !fuel.level()) {
			me.runningN.setBoolValue(me.running = 0);
			me.timer.stop();

		} else {
			me.fuelflow = power;
		}

		var lastn1 = me.n1;
		me.n1 = me.n1LP.filter(max(me.fuelflow, starter));
		me.n2 = me.n2LP.filter(me.n1);
		me.up = me.n1 - lastn1;

		# temperature
		if (me.fuelflow > me.pos.idle)
			var target = 440 + (779 - 440) * (0.03 + me.fuelflow - me.pos.idle) / (me.pos.flight - me.pos.idle);
		else
			var target = 440 * (0.03 + me.fuelflow) / me.pos.idle;

		if (me.n1 < 0.4 and me.fuelflow - me.n1 > 0.001) {
			target += (me.fuelflow - me.n1) * 7000;
			if (target > 980)
				target = 980;
		}

		var airtemp = me.airtempN.getValue();
		if (target < airtemp)
			target = airtemp;

		var decay = (me.up > 0 ? 10 : me.n1 > 0.02 ? 0.01 : 0.001) * dt;
		me.totN.setValue((me.totN.getValue() + decay * target) / (1 + decay));

		# constant 150 kg/h for now (both turbines)
		fuel.consume(75 * KG2GAL * me.fuelflow * dt / 3600);

		# derived gauge values
		me.n1_pctN.setDoubleValue(me.n1 * 100);
		me.n2_pctN.setDoubleValue(me.n2 * 100);
		me.n1N.setDoubleValue(me.n1 * 50970);
		me.n2N.setDoubleValue(me.n2 * 33290);
	},
	setpower: func(v) {
		var target = (int((me.power + 0.15) * 3) + v) / 3;
		var time = abs(me.power - target) * 4;
		interpolate(me.powerN, target, time);
	},
	adjust_power: func(delta, mode = 0) {
		if (delta) {
			var power = me.powerN.getValue();
			if (me.power_min == nil) {
				if (delta > 0) {
					if (power < me.pos.idle) {
						me.power_min = me.pos.cutoff;
						me.power_max = me.pos.idle;
					} else {
						me.power_min = me.pos.idle;
						me.power_max = me.pos.flight;
					}
				} else {
					if (power > me.pos.idle) {
						me.power_max = me.pos.flight;
						me.power_min = me.pos.idle;
					} else {
						me.power_max = me.pos.idle;
						me.power_min = me.pos.cutoff;
					}
				}
			}
			me.powerN.setValue(power = clamp(power + delta, me.power_min, me.power_max));
			return power;
		} elsif (mode) {
			me.power_min = me.power_max = nil;
		}
	},
	pos: { cutoff: 0, idle: 0.63, flight: 1 },
};



var engines = {
	init: func {
		me.engine = [Engine.new(0), Engine.new(1)];
		me.trimN = props.globals.initNode("/controls/engines/power-trim");
		me.balanceN = props.globals.initNode("/controls/engines/power-balance");
		me.commonrpmN = props.globals.initNode("/engines/engine/rpm");
	},
	reset: func {
		me.engine[0].reset();
		me.engine[1].reset();
	},
	update: func(dt) {
		# each starter button disables ignition switch of opposite engine
		if (me.engine[0].starterN.getValue())
			me.engine[1].ignitionN.setBoolValue(0);
		if (me.engine[1].starterN.getValue())
			me.engine[0].ignitionN.setBoolValue(0);

		# update engines
		var trim = me.trimN.getValue() * 0.1;
		var balance = me.balanceN.getValue() * 0.1;
		me.engine[0].update(dt, trim - balance);
		me.engine[1].update(dt, trim + balance);

		# set rotor
		var n2relrpm = max(me.engine[0].n2, me.engine[1].n2);
		var n2max = (me.engine[0].n2 +  me.engine[1].n2) / 2;
		target_rel_rpm.setValue(n2relrpm);
		max_rel_torque.setValue(n2max);

		me.commonrpmN.setValue(n2max * 33290); # attitude indicator needs pressure

		# Warning Box Type K-DW02/01
		if (n2max > 0.67) { # 0.63?
			setprop("sim/sound/warn2600", n2max > 1.08);
			setprop("sim/sound/warn650", abs(me.engine[0].n2 - me.engine[1].n2) > 0.12
					or n2max > 0.75 and n2max < 0.95);
		} else {
			setprop("sim/sound/warn2600", 0);
			setprop("sim/sound/warn650", 0);
		}
	},
	adjust_power: func(delta, mode = 0) {
		if (!delta) {
			engines.engine[0].adjust_power(0, mode);
			engines.engine[1].adjust_power(0, mode);
		} else {
			var p = [0, 0];
			for (var i = 0; i < 2; i += 1)
				if (controls.engines[i].selected.getValue())
					p[i] = engines.engine[i].adjust_power(delta);
			gui.popupTip(sprintf("power lever %d%%", 100 * max(p[0], p[1])));
		}
	},
	quickstart: func { # development only
		me.engine[0].n1LP.set(1);
		me.engine[0].n2LP.set(1);
		me.engine[1].n1LP.set(1);
		me.engine[1].n2LP.set(1);
		procedure.step = 1;
		procedure.next();
	},
};



var vert_speed_fpm = props.globals.initNode("/velocities/vertical-speed-fpm");

if (devel) {
	setprop("/instrumentation/altimeter/setting-inhg", getprop("/environment/pressure-inhg"));

	setlistener("/sim/signals/fdm-initialized", func {
		settimer(func {
			screen.property_display.x = 760;
			screen.property_display.y = 200;
			screen.property_display.format = "%.3g";
			screen.property_display.add(
				rotor_rpm,
				torque_pct,
				target_rel_rpm,
				max_rel_torque,
				"/controls/engines/power-trim",
				"/controls/engines/power-balance",
				"/consumables/fuel/total-fuel-gals",
				"L",
				engines.engine[0].runningN,
				engines.engine[0].ignitionN,
				"/controls/engines/engine[0]/power",
				engines.engine[0].n1_pctN,
				engines.engine[0].n2_pctN,
				engines.engine[0].totN,
				#engines.engine[0].n1N,
				#engines.engine[0].n2N,
				"R",
				engines.engine[1].runningN,
				engines.engine[1].ignitionN,
				"/controls/engines/engine[1]/power",
				engines.engine[1].n1_pctN,
				engines.engine[1].n2_pctN,
				engines.engine[1].totN,
				#engines.engine[1].n1N,
				#engines.engine[1].n2N,
				"X",
				"/sim/model/gross-weight-kg",
				"/position/altitude-ft",
				"/position/altitude-agl-ft",
				"/instrumentation/altimeter/indicated-altitude-ft",
				"/environment/temperature-degc",
				vert_speed_fpm,
				"/velocities/airspeed-kt",
			);
		}, 1);
	});
}



var mouse = {
	init: func {
		me.x = me.y = nil;
		me.savex = nil;
		me.savey = nil;
		setlistener("/sim/startup/xsize", func(n) me.centerx = int(n.getValue() / 2), 1);
		setlistener("/sim/startup/ysize", func(n) me.centery = int(n.getValue() / 2), 1);
		setlistener("/devices/status/mice/mouse/mode", func(n) me.mode = n.getValue(), 1);
		setlistener("/devices/status/mice/mouse/button[1]", func(n) {
			me.mmb = n.getValue();
			if (me.mode)
				return;
			if (me.mmb) {
				engines.adjust_power(0, 1);
				me.savex = me.x;
				me.savey = me.y;
				gui.setCursor(me.centerx, me.centery, "none");
			} else {
				gui.setCursor(me.savex, me.savey, "pointer");
			}
		}, 1);
		setlistener("/devices/status/mice/mouse/x", func(n) me.x = n.getValue(), 1);
		setlistener("/devices/status/mice/mouse/y", func(n) me.update(me.y = n.getValue()), 1);
	},
	update: func {
		if (me.mode or !me.mmb)
			return;

		if (var dy = -me.y + me.centery)
			engines.adjust_power(dy * 0.005);

		gui.setCursor(me.centerx, me.centery);
	},
};



var power = func(v) {
	if (controls.engines[0].selected.getValue())
		engines.engine[0].setpower(v);
	if (controls.engines[1].selected.getValue())
		engines.engine[1].setpower(v);
}



var startup = func {
	if (procedure.stage < 0) {
		procedure.step = 1;
		procedure.next();
	}
}


var shutdown = func {
	if (procedure.stage > 0) {
		procedure.step = -1;
		procedure.next();
	}
}


var procedure = {
	stage: -999,
	step: nil,
	loopid: 0,
	reset: func {
		me.loopid += 1;
		me.stage = -999;
		step = nil;
		engines.reset();
	},
	next: func(delay = 0) {
		if (crashed)
			return;
		if (me.stage < 0 and me.step > 0 or me.stage > 0 and me.step < 0)
			me.stage = 0;

		settimer(func { me.stage += me.step; me.process(me.loopid) }, delay * !quickstart);
	},
	process: func(id) {
		id == me.loopid or return;
		# startup
		if (me.stage == 1) {
			cprint("", "1: press start button #1 -> spool up turbine #1 to N1 8.6--15%");
			setprop("/controls/rotor/brake", 0);
			engines.engine[0].ignitionN.setValue(1);
			engines.engine[0].starterN.setValue(1);
			me.next(4);

		} elsif (me.stage == 2) {
			cprint("", "2: move power lever #1 forward -> fuel injection");
			engines.engine[0].powerN.setValue(0.13);
			me.next(2.5);

		} elsif (me.stage == 3) {
			cprint("", "3: turbine #1 ignition (wait for EGT stabilization)");
			me.next(4.5);

		} elsif (me.stage == 4) {
			cprint("", "4: move power lever #1 to idle position -> engine #1 spools up to N1 63%");
			engines.engine[0].powerN.setValue(0.63);
			me.next(5);

		} elsif (me.stage == 5) {
			cprint("", "5: release start button #1\n");
			engines.engine[0].starterN.setValue(0);
			engines.engine[0].ignitionN.setValue(0);
			me.next(3);

		} elsif (me.stage == 6) {
			cprint("", "6: press start button #2 -> spool up turbine #2 to N1 8.6--15%");
			engines.engine[1].ignitionN.setValue(1);
			engines.engine[1].starterN.setValue(1);
			me.next(5);

		} elsif (me.stage == 7) {
			cprint("", "7: move power lever #2 forward -> fuel injection");
			engines.engine[1].powerN.setValue(0.13);
			me.next(2);

		} elsif (me.stage == 8) {
			cprint("", "8: turbine #2 ignition (wait for EGT stabilization)");
			me.next(5);

		} elsif (me.stage == 9) {
			cprint("", "9: move power lever #2 to idle position -> engine #2 spools up to N1 63%");
			engines.engine[1].powerN.setValue(0.63);
			me.next(8);

		} elsif (me.stage == 10) {
			cprint("", "10: release start button #2\n");
			engines.engine[1].starterN.setValue(0);
			engines.engine[1].ignitionN.setValue(0);
			me.next(1);

		} elsif (me.stage == 11) {
			cprint("", "11: move both power levers forward -> turbines spool up to 100%");
			engines.engine[0].powerN.setValue(1);
			engines.engine[1].powerN.setValue(1);

		# shutdown
		} elsif (me.stage == -1) {
			cprint("", "-1: power lever in idle position; cool engines");
			engines.engine[0].starterN.setValue(0);
			engines.engine[1].starterN.setValue(0);
			engines.engine[0].ignitionN.setValue(0);
			engines.engine[1].ignitionN.setValue(0);
			engines.engine[0].powerN.setValue(0.63);
			engines.engine[1].powerN.setValue(0.63);
			me.next(40);

		} elsif (me.stage == -2) {
			cprint("", "-2: engines shut down");
			engines.engine[0].powerN.setValue(0);
			engines.engine[1].powerN.setValue(0);
			me.next(40);

		} elsif (me.stage == -3) {
			cprint("", "-3: rotor brake\n");
			setprop("/controls/rotor/brake", 1);
		}
	},
};



# torquemeter
var torque_val = 0;
torque.setDoubleValue(0);

var update_torque = func(dt) {
	var f = dt / (0.2 + dt);
	torque_val = torque.getValue() * f + torque_val * (1 - f);
	torque_pct.setDoubleValue(torque_val / 5300);
}



# blade vibration absorber pendulum
var pendulum = props.globals.getNode("/sim/model/bo105/absorber-angle-deg", 1);
var update_absorber = func {
	pendulum.setDoubleValue(90 * clamp(abs(rotor_rpm.getValue()) / 90));
}



var vibration = { # and noise ...
	init: func {
		me.lonN = props.globals.initNode("/rotors/main/vibration/longitudinal");
		me.latN = props.globals.initNode("/rotors/main/vibration/lateral");
		me.soundN = props.globals.initNode("/sim/sound/vibration");
		me.airspeedN = props.globals.getNode("/velocities/airspeed-kt");
		me.vertspeedN = props.globals.getNode("/velocities/vertical-speed-fps");

		me.groundspeedN = props.globals.getNode("/velocities/groundspeed-kt");
		me.speeddownN = props.globals.getNode("/velocities/speed-down-fps");
		me.angleN = props.globals.initNode("/velocities/descent-angle-deg");
		me.dir = 0;
	},
	update: func(dt) {
		var airspeed = me.airspeedN.getValue();
		if (airspeed > 155) { # overspeed vibration
			var frequency = 2000 + 500 * rand();
			var v = 0.49 + 0.5 * normatan(airspeed - 160, 10);
			var intensity = v;
			var noise = v * internal;

		} elsif (airspeed > 30) { # Blade Vortex Interaction (BVI)    8 deg, 65 kts max?
			var frequency = rotor_rpm.getValue() * 4 * 60;
			var down = me.speeddownN.getValue() * FT2M;
			var level = me.groundspeedN.getValue() * NM2M / 3600;
			me.angleN.setDoubleValue(var angle = math.atan2(down, level) * R2D);
			var speed = math.sqrt(level * level + down * down) * MPS2KT;
			angle = bell(angle - 9, 13);
			speed = bell(speed - 65, 450);
			var v = angle * speed;
			var intensity = v * 0.10;
			var noise = v * (1 - internal * 0.4);

		} else { # hover
			var rpm = rotor_rpm.getValue();
			var frequency = rpm * 4 * 60;
			var coll = bell(collective.getValue(), 0.5);
			var ias = bell(airspeed, 600);
			var vert = bell(me.vertspeedN.getValue() * 0.5, 400);
			var rpm = 0.477 + 0.5 * normatan(rpm - 350, 30) * 1.025;
			var v = coll * ias * vert * rpm;
			var intensity = v * 0.10;
			var noise = v * (1 - internal * 0.4);
		}

		me.dir += dt * frequency;
		me.lonN.setValue(cos(me.dir) * intensity);
		me.latN.setValue(sin(me.dir) * intensity);
		me.soundN.setValue(noise);
	},
};




# sound =============================================================

# stall sound
var stall = props.globals.getNode("rotors/main/stall", 1);
var stall_filtered = props.globals.getNode("rotors/main/stall-filtered", 1);

var stall_val = 0;
stall.setDoubleValue(0);

var update_stall = func(dt) {
	var s = stall.getValue();
	if (s < stall_val) {
		var f = dt / (0.3 + dt);
		stall_val = s * f + stall_val * (1 - f);
	} else {
		stall_val = s;
	}
	var c = collective.getValue();
	stall_filtered.setDoubleValue(stall_val + 0.006 * (1 - c));
}



# skid slide sound
var Skid = {
	new: func(n) {
		var m = { parents: [Skid] };
		var soundN = props.globals.getNode("sim/model/bo105/sound", 1).getChild("slide", n, 1);
		var gearN = props.globals.getNode("gear", 1).getChild("gear", n, 1);

		m.compressionN = gearN.getNode("compression-norm", 1);
		m.rollspeedN = gearN.getNode("rollspeed-ms", 1);
		m.frictionN = gearN.getNode("ground-friction-factor", 1);
		m.wowN = gearN.getNode("wow", 1);
		m.volumeN = soundN.getNode("volume", 1);
		m.pitchN = soundN.getNode("pitch", 1);

		m.compressionN.setDoubleValue(0);
		m.rollspeedN.setDoubleValue(0);
		m.frictionN.setDoubleValue(0);
		m.volumeN.setDoubleValue(0);
		m.pitchN.setDoubleValue(0);
		m.wowN.setBoolValue(1);
		m.self = n;
		return m;
	},
	update: func {
		me.wow = me.wowN.getValue();
		if (me.wow < 0.5)
			return me.volumeN.setDoubleValue(0);

		var rollspeed = abs(me.rollspeedN.getValue());
		me.pitchN.setDoubleValue(rollspeed * 0.6);

		var s = normatan(20 * rollspeed);
		var f = clamp((me.frictionN.getValue() - 0.5) * 2);
		var c = clamp(me.compressionN.getValue() * 2);
		var vol = s * f * c;
		me.volumeN.setDoubleValue(vol > 0.1 ? vol : 0);
		
	},
};

var skids = [];
for (var i = 0; i < 4; i += 1)
	append(skids, Skid.new(i));


var update_slide = func {
	foreach (var s; skids)
		s.update();
}


var internal = 1;
setlistener("sim/current-view/view-number", func {
	internal = getprop("sim/current-view/internal");
}, 1);


var volume = props.globals.getNode("sim/model/bo105/sound/volume", 1);
var update_volume = func {
	var door_open = 0;
	foreach (var d; doors.list) {
		if (!d.enabledN.getValue() or d.positionN.getValue() > 0.001) {
			door_open = 1;
			break;
		}
	}
	volume.setDoubleValue(1 - (0.8 - 0.6 * door_open) * internal);
}



# crash handler =====================================================
var crash = func {
	if (arg[0]) {
		# crash
		setprop("sim/model/bo105/tail-angle-deg", 35);
		setprop("sim/model/bo105/shadow", 0);
		setprop("sim/model/bo105/doors/door[0]/position-norm", 0.2);
		setprop("sim/model/bo105/doors/door[1]/position-norm", 0.9);
		setprop("sim/model/bo105/doors/door[2]/position-norm", 0.2);
		setprop("sim/model/bo105/doors/door[3]/position-norm", 0.6);
		setprop("sim/model/bo105/doors/door[4]/position-norm", 0.1);
		setprop("sim/model/bo105/doors/door[5]/position-norm", 0.05);
		setprop("rotors/main/rpm", 0);
		setprop("rotors/main/blade[0]/flap-deg", -60);
		setprop("rotors/main/blade[1]/flap-deg", -50);
		setprop("rotors/main/blade[2]/flap-deg", -40);
		setprop("rotors/main/blade[3]/flap-deg", -30);
		setprop("rotors/main/blade[0]/incidence-deg", -30);
		setprop("rotors/main/blade[1]/incidence-deg", -20);
		setprop("rotors/main/blade[2]/incidence-deg", -50);
		setprop("rotors/main/blade[3]/incidence-deg", -55);
		setprop("rotors/tail/rpm", 0);
		strobe_switch.setValue(0);
		beacon_switch.setValue(0);
		nav_light_switch.setValue(0);
		engines.engine[0].n2_pctN.setValue(0);
		engines.engine[1].n2_pctN.setValue(0);
		torque_pct.setValue(torque_val = 0);
		stall_filtered.setValue(stall_val = 0);

	} else {
		# uncrash (for replay)
		setprop("sim/model/bo105/tail-angle-deg", 0);
		setprop("sim/model/bo105/shadow", 1);
		doors.reset();
		setprop("rotors/tail/rpm", 2219);
		setprop("rotors/main/rpm", 442);
		for (i = 0; i < 4; i += 1) {
			setprop("rotors/main/blade[" ~ i ~ "]/flap-deg", 0);
			setprop("rotors/main/blade[" ~ i ~ "]/incidence-deg", 0);
		}
		strobe_switch.setValue(1);
		beacon_switch.setValue(1);
		engines.engine[0].n2_pct.setValue(100);
		engines.engine[1].n2_pct.setValue(100);
	}
}




# "manual" rotor animation for flight data recorder replay ============
var rotor_step = props.globals.getNode("sim/model/bo105/rotor-step-deg");
var blade1_pos = props.globals.getNode("rotors/main/blade[0]/position-deg", 1);
var blade2_pos = props.globals.getNode("rotors/main/blade[1]/position-deg", 1);
var blade3_pos = props.globals.getNode("rotors/main/blade[2]/position-deg", 1);
var blade4_pos = props.globals.getNode("rotors/main/blade[3]/position-deg", 1);
var rotorangle = 0;

var rotoranim_loop = func {
	var i = rotor_step.getValue();
	if (i >= 0.0) {
		blade1_pos.setValue(rotorangle);
		blade2_pos.setValue(rotorangle + 90);
		blade3_pos.setValue(rotorangle + 180);
		blade4_pos.setValue(rotorangle + 270);
		rotorangle += i;
		settimer(rotoranim_loop, 0.1);
	}
}

var init_rotoranim = func {
	if (rotor_step.getValue() >= 0.0)
		settimer(rotoranim_loop, 0.1);
}






# view management ===================================================

var elapsedN = props.globals.getNode("/sim/time/elapsed-sec", 1);
var flap_mode = 0;
var down_time = 0;
controls.flapsDown = func(v) {
	if (!flap_mode) {
		if (v < 0) {
			down_time = elapsedN.getValue();
			flap_mode = 1;
			dynamic_view.lookat(
					5,     # heading left
					-20,   # pitch up
					0,     # roll right
					0.2,   # right
					0.6,   # up
					0.85,  # back
					0.2,   # time
					55,    # field of view
			);
		} elsif (v > 0) {
			flap_mode = 2;
			gui.popupTip("AUTOTRIM", 1e10);
			aircraft.autotrim.start();
		}

	} else {
		if (flap_mode == 1) {
			if (elapsedN.getValue() < down_time + 0.2)
				return;

			dynamic_view.resume();
		} elsif (flap_mode == 2) {
			aircraft.autotrim.stop();
			gui.popdown();
		}
		flap_mode = 0;
	}
}


# register function that may set me.heading_offset, me.pitch_offset, me.roll_offset,
# me.x_offset, me.y_offset, me.z_offset, and me.fov_offset
#
dynamic_view.register(func {
	var lowspeed = 1 - normatan(me.speedN.getValue() / 50);
	var r = sin(me.roll) * cos(me.pitch);

	me.heading_offset =						# heading change due to
		(me.roll < 0 ? -50 : -30) * r * abs(r);			#    roll left/right

	me.pitch_offset =						# pitch change due to
		(me.pitch < 0 ? -50 : -50) * sin(me.pitch) * lowspeed	#    pitch down/up
		+ 15 * sin(me.roll) * sin(me.roll);			#    roll

	me.roll_offset =						# roll change due to
		-15 * r * lowspeed;					#    roll
});


var adjust_fov = func {
	var w = getprop("/sim/startup/xsize");
	var h = getprop("/sim/startup/ysize");
	var ar = clamp(max(w, h) / min(w, h), 0, 2);
	var fov = 60 + (ar - (4 / 3)) * 10 / (16 / 9 - 4 / 3);
	setprop("/sim/view/config/default-field-of-view-deg", fov);
	if (internal)
		setprop("/sim/current-view/config/default-field-of-view-deg", fov);
}

setlistener("/sim/startup/xsize", adjust_fov);
setlistener("/sim/startup/ysize", adjust_fov, 1);







# main() ============================================================
var delta_time = props.globals.getNode("/sim/time/delta-sec", 1);
var hi_heading = props.globals.getNode("/instrumentation/heading-indicator/indicated-heading-deg", 1);
var vertspeed = props.globals.initNode("/velocities/vertical-speed-fps");
var gross_weight_lb = props.globals.initNode("fdm/yasim/gross-weight-lbs");
var gross_weight_kg = props.globals.initNode("/sim/model/gross-weight-kg");
props.globals.getNode("/instrumentation/adf/rotation-deg", 1).alias(hi_heading);


var main_loop = func {
	props.globals.removeChild("autopilot");
	if (replay)
		setprop("/position/gear-agl-m", getprop("/position/altitude-agl-ft") * 0.3 - 1.2);
	vert_speed_fpm.setDoubleValue(vertspeed.getValue() * 60);
	gross_weight_kg.setDoubleValue(gross_weight_lb.getValue() * LB2KG);


	var dt = delta_time.getValue();
	update_torque(dt);
	update_stall(dt);
	update_slide();
	update_volume();
	update_absorber();
	fuel.update(dt);
	engines.update(dt);
	vibration.update(dt);
	settimer(main_loop, 0);
}


var replay = 0;
var crashed = 0;

var doors = Doors.new();


var first_init = 1;

setlistener("/sim/signals/fdm-initialized", func {
	if (!first_init) return;
	first_init = 0;

	gui.menuEnable("autopilot", 1);
	init_rotoranim();
	vibration.init();
	engines.init();
	fuel.init();
	mouse.init();

	

	collective.setDoubleValue(1);

	setlistener("/sim/signals/reinit", func(n) {
		n.getBoolValue() and return;
		cprint("32;1", "reinit");
		procedure.reset();
		collective.setDoubleValue(1);
		#aircraft.livery.rescan();
		reconfigure();
		if (crashed)
			crash(crashed = 0);
	});

	setlistener("sim/crashed", func(n) {
		cprint("31;1", "crashed ", n.getValue());
		engines.engine[0].timer.stop();
		engines.engine[1].timer.stop();
		if (n.getBoolValue())
			crash(crashed = 1);
	});

	setlistener("/sim/freeze/replay-state", func(n) {
		replay = n.getValue();
		cprint("33;1", replay ? "replay" : "pause");
		if (crashed)
			crash(!n.getBoolValue())
	});

	main_loop();
	if (devel and quickstart)
		engines.quickstart();
});


